Find Doctor Shopping
…
df_doctor_shoppers %>%
  inner_join( df_people ) %>% 
  { . } -> df_doctor_shoppers

Joining, by = "pin"

df_intersect %>%
  mutate( ndays = end_date.y - start_date.y ) %>%
  filter( ndays < 2000 ) %>%
  group_by( pin, group, ndays  ) %>%
  summarise( quantity = sum( quantity)) %>%
  mutate( pills_per_day = quantity / as.integer( ndays) )

# A tibble: 9,666 x 5
# Groups:   pin, group [9,666]
   pin         group ndays     quantity pills_per_day
   <chr>       <dbl> <time>       <int>         <dbl>
 1 00003359562     0 " 7 days"       40          5.71
 2 00003359562     2 " 7 days"       40          5.71
 3 00003359562     3 " 7 days"       40          5.71
 4 00005399472     3 18 days        234         13   
 5 00005399472     4 41 days        400          9.76
 6 00005399472     5 58 days        700         12.1 
 7 00005399472     8 14 days         20          1.43
 8 00005399472     9 16 days         20          1.25
 9 00005399472    10 " 7 days"       10          1.43
10 00006237413     0 " 7 days"       80         11.4 
# ... with 9,656 more rows
…
